@startuml
skinparam linetype ortho 1
skinparam shadowing false
skinparam packageStyle rectangle

skinparam class {
    BorderColor Black
    BackgroundColor<<Region>> Wheat
    BackgroundColor<<SubRegion>> LightBlue
    BackgroundColor<<PointOfInterest>> LightGreen
    BackgroundColor<<District>> PaleGreen
    BackgroundColor<<Case>> LightCoral
    BackgroundColor<<Counties>> LightYellow
}

' Define global regions with stereotypes for styling
class "Home" as Home <<Region>> {
}

class "England" as England <<Region>> {
}
class "Scotland" as Scotland <<Region>> {
}
class "Wales" as Wales <<Region>> {
}
class "Northern Ireland" as NI <<Region>> {
}
class "Republic of Ireland" as ROI <<Region>> {
}
class "Other Regions" as OtherRegions <<Region>> {
}

' Define subregions for England with stereotypes for styling
class "South East" as SE <<SubRegion>> {
}
class "South West" as SW <<SubRegion>> {
}
class "Greater London" as GL <<SubRegion>> {
}
class "East of England" as EoE <<SubRegion>> {
}
class "East Midlands" as EM <<SubRegion>> {
}
class "West Midlands" as WM <<SubRegion>> {
}
class "The North West" as NW <<SubRegion>> {
}
class "The North East & Yorkshire" as NEY <<SubRegion>> {
}

' Define subregions for Scotland with stereotypes for styling
class "Highland" as HL <<SubRegion>> {
}
class "Island" as ISL <<SubRegion>> {
}
class "Lowland" as LL <<SubRegion>> {
}

' Define Preserved Counties for Wales with stereotypes for styling
class "Preserved Counties" as PC <<SubRegion>> {
}

' Define Greater London districts as Points of Interest for styling
class "Greater London Districts" as GLD <<PointOfInterest>> {
}

' Define individual districts of note within Greater London
class "E1 District" as E1 <<District>> {
}
class "EC1 District" as EC1 <<District>> {
}

' Define Paranormal Cases
class "Paranormal Case" as ParanormalCase <<Case>> {
}

' Connect regions to Home
Home -down-> England
Home -down-> Scotland
Home -down-> Wales
Home -down-> NI
Home -down-> ROI
Home -down-> OtherRegions

' Connect subregions to their respective regions
England -down-> SE
England -down-> SW
England -down-> GL
England -down-> EoE
England -down-> EM
England -down-> WM
England -down-> NW
England -down-> NEY

Scotland -down-> HL
Scotland -down-> ISL
Scotland -down-> LL

Wales -down-> PC

' Connect Greater London districts to Greater London
GL -down-> GLD

' Connect individual districts to Greater London Districts
GLD -down-> E1
GLD -down-> EC1

' Connect Paranormal Cases to subregions and districts
SE -down-> ParanormalCase
SW -down-> ParanormalCase
EoE -down-> ParanormalCase
EM -down-> ParanormalCase
WM -down-> ParanormalCase
NW -down-> ParanormalCase
NEY -down-> ParanormalCase
HL -down-> ParanormalCase
ISL -down-> ParanormalCase
LL -down-> ParanormalCase
PC -down-> ParanormalCase
E1 -down-> ParanormalCase
EC1 -down-> ParanormalCase

@enduml
